mc_criterios  Estilo  Confiabilidade  Consumo
1    1/2  3
2    1    4
1/3  1/4  1

1 abcd
afawefq

mcp_estilo  car1  car2  car3  car4
1    1/4  4  1/6
4    1    4  1/4
1/4  1/4  1  1/5
6    4    5  1

mcp_confiabilidade  car1  car2  car3  car4
1    2    5  1
1/2  1    4  1/4
1/5  1/4  1  1/4
1    4  4  1

mcp_consumo  car1  car2  car3  car4
1    1/4  4  1/6
4    1    4  1/4
1/4  1/4  1  1/5
6    4    5  1
